Introduction
…
Quantify clusters using get_clusters()

It is also useful to quantify the size of phylogenetic clusters from the same facility. Larger clusters indicate more within-facility transmission while smaller clusters or singletons indicate more importation. When working with the get_clusters() function, you may perform analyses with various cluster pureness levels. The default pureness value is 1. Lower values will allow clusters to be identified that have some â€œcontaminationâ€ with other facilities.

# get clusters (note this takes some time to run, but not too long for the test dataset!)
clusters <- get_clusters(tr,locs, pureness = 1)

The output of get_clusters() is a list including a data frame of information about the pure subtrees identifed and a list of the subtrees themselves:

# dissect output
pure_subtree_info <- clusters$pure_subtree_info
subtrees <- clusters$subtrees
pure_subtree_info

## # A tibble: 224 x 4
##    loc   subtr_size index sample_id
##    <chr>      <dbl> <int> <chr>    
##  1 D              1    NA PCMP_H100
##  2 N              1    NA PCMP_H98 
##  3 D              1    NA PCMP_H141
##  4 D              3    10 <NA>     
##  5 D              1    NA PCMP_H142
##  6 E              6    17 <NA>     
##  7 H              1    NA PCMP_H391
##  8 D              1    NA PCMP_H93 
##  9 H              1    NA PCMP_H138
## 10 T              1    NA PCMP_H281
## # â€¦ with 214 more rows
…
4. Is transmission occurring along paths of higher patient flow?

To explore this question, we can leverage our whole-genome sequencing data in the form of the SNV distance matrix and/or Fsp matrix along with the patient transfer network using the get_patient_flow(), summarize_pairs(), and merge_inter_summaries() functions.

Note: If you do not have a patient transfer network, you could use geographic distances between facilities as a proxy for patient transfer because they are often correlated.

Remember that choosing pairwise SNV distance threshold(s) based on your dataset is very important, avoid using the default values for your own dataset.

First, we can summarize the pairwise SNV distance information using the summarize_pairs() function:

# get summary of pairwise SNV distance data
snv_summary <- summarize_pairs(snv_dists,summary_fns = c('min'), threshs = c(7, 11)) %>% filter(loc1 != loc2)
snv_summary

## # A tibble: 210 x 5
## # Groups:   loc1, loc2 [210]
##    loc1  loc2  dists_min under_7 under_11
##    <chr> <chr>     <dbl>   <int>    <int>
##  1 A     B            19       0        0
##  2 A     C            63       0        0
##  3 A     D            36       0        0
##  4 A     E            65       0        0
##  5 A     F            70       0        0
##  6 A     G            69       0        0
##  7 A     H            71       0        0
##  8 A     I            73       0        0
##  9 A     J            42       0        0
## 10 A     K           102       0        0
## # â€¦ with 200 more rows
…
The number of transfers from facility 1 to 2 (n_transfers_f12), and facility 2 to 1 (n_transfers_f21)

The indirect flow metrics from facility 1 to 2 (pt_trans_metric_f12), and facility 2 to 1 (pt_trans_metric_f21)

Undirected transfer and flow metrics that are the sum of the two direct metrics (sum_transfers and sum_pt_trans_metric). This is useful for comparing to the undirected pairwise SNV distance summary and Fsp.

Next, we can merge the patient flow, pairwise SNV distance, and fsp summaries (note that there are a lot of NA values here because we do not have patient flow information for all facilities):

# have to convert fsp matrix to long form first
fsp_long <- make_long_form(fsp)

pair_info <- merge_inter_summaries(pt_trans, snv_summary, fsp_long) 
pair_info

## # A tibble: 210 x 12
## # Groups:   loc1, loc2 [210]
##    loc1  loc2  dists_min under_7 under_11    fsp n_transfers_f12
##    <chr> <chr>     <dbl>   <int>    <int>  <dbl>           <dbl>
##  1 A     B            19       0        0 NA                  NA
##  2 A     C            63       0        0  0.768              NA
##  3 A     D            36       0        0  0.747              NA
##  4 A     E            65       0        0  0.820              NA
##  5 A     F            70       0        0  0.739              NA
##  6 A     G            69       0        0  0.732              NA
##  7 A     H            71       0        0  0.844              NA
##  8 A     I            73       0        0  0.868              NA
##  9 A     J            42       0        0  0.974              NA
## 10 A     K           102       0        0  0.948              NA
## # â€¦ with 200 more rows, and 5 more variables: pt_trans_metric_f12 <dbl>,
## #   n_transfers_f21 <dbl>, pt_trans_metric_f21 <dbl>, sum_transfers <dbl>,
## #   sum_pt_trans_metric <dbl>
…
