Introduction • regentrans
…
Quantify clusters using get_clusters()

It is also useful to quantify the size of phylogenetic clusters from the same facility. Larger clusters indicate more within-facility transmission while smaller clusters or singletons indicate more importation. When working with the get_clusters() function, you may perform analyses with various cluster pureness levels. The default pureness value is 1. Lower values will allow clusters to be identified that have some “contamination” with other facilities.

# get clusters (note this takes some time to run, but not too long for the test dataset!)
clusters <- get_clusters(tr,locs, pureness = 1)

The output of get_clusters() is a list including a data frame of information about the pure subtrees identifed and a list of the subtrees themselves:

# dissect output
pure_subtree_info <- clusters$pure_subtree_info
subtrees <- clusters$subtrees
pure_subtree_info

## # A tibble: 224 x 4
##    loc   subtr_size index isolate_id
##    <chr>      <dbl> <int> <chr>     
##  1 D              1    NA PCMP_H100 
##  2 N              1    NA PCMP_H98  
##  3 D              1    NA PCMP_H141 
##  4 D              3    10 <NA>      
##  5 D              1    NA PCMP_H142 
##  6 E              6    17 <NA>      
##  7 H              1    NA PCMP_H391 
##  8 D              1    NA PCMP_H93  
##  9 H              1    NA PCMP_H138 
## 10 T              1    NA PCMP_H281 
## # … with 214 more rows
…
Here we can see that some facilities have more similar CRKP populations than others, suggesting that there is more transmission between those facilities.

One way to determine whether fsp values are significant is to use permutation (Donker et al., 2017).

SNV distances

We can also look at the number of closely related pairs of isolates at different facility pairs to get a sense of the extent of potential recent transmission and identify facilities and facility pairs with more putative spread. For this, we must choose a SNV threshold. Therefore, we recommend performing a sensitivity analysis by choosing several different SNV thresholds and seeing how robust the results are to these changes.

To do this, we can summarize the pairwise SNV distance information using the summarize_pairs() function:

# get summary of pairwise SNV distance data
snv_summary <- summarize_pairs(pair_types,summary_fns = c('min'), threshs = c(6, 10)) 
snv_summary

## # A tibble: 227 x 5
## # Groups:   loc1, loc2 [227]
##    loc1  loc2  dist_min leq_6 leq_10
##    <chr> <chr>    <dbl> <int>  <int>
##  1 A     A            1     3      3
##  2 A     B           19     0      0
##  3 A     C           63     0      0
##  4 A     D           36     0      0
##  5 A     E           65     0      0
##  6 A     F           70     0      0
##  7 A     G           69     0      0
##  8 A     H           71     0      0
##  9 A     I           73     0      0
## 10 A     J           42     0      0
## # … with 217 more rows
…
Undirected transfer and flow metrics that are the sum of the two direct metrics (sum_transfers and sum_pt_trans_metric). This is useful for comparing to the undirected pairwise SNV distance summary and Fsp.

Next, we can merge the patient flow, pairwise SNV distance, and fsp summaries (note that there are a lot of NA values here because we do not have patient flow information for all facilities):

# have to convert fsp matrix to long form first
fsp_long <- make_long_form(fsp)

# only keep inter-facility info in snv_summary
inter_snv_summary <- snv_summary %>% filter(loc1 != loc2)

pair_info <- merge_inter_summaries(pt_trans, inter_snv_summary, fsp_long) 
pair_info

## # A tibble: 265 x 12
## # Groups:   loc1, loc2 [210]
##    loc1  loc2  dist_min leq_6 leq_10    fsp n_transfers_f12 pt_trans_metric_f12
##    <chr> <chr>    <dbl> <int>  <int>  <dbl>           <dbl>               <dbl>
##  1 A     B           19     0      0 NA                  NA                  NA
##  2 A     C           63     0      0  0.768              NA                  NA
##  3 A     D           36     0      0  0.747              NA                  NA
##  4 A     E           65     0      0  0.820              NA                  NA
##  5 A     F           70     0      0  0.739              NA                  NA
##  6 A     G           69     0      0  0.732              NA                  NA
##  7 A     H           71     0      0  0.844              NA                  NA
##  8 A     I           73     0      0  0.868              NA                  NA
##  9 A     J           42     0      0  0.974              NA                  NA
## 10 A     K          102     0      0  0.948              NA                  NA
## # … with 255 more rows, and 4 more variables: n_transfers_f21 <dbl>,
## #   pt_trans_metric_f21 <dbl>, sum_transfers <dbl>, sum_pt_trans_metric <dbl>
…
